campaign,total_conversions,total_conversion_value,normalised_conversion_value,total_conversions_act_purchase,total_conversion_value_act_purchase,normalised_conversion_value_act_purchase
CAT-4003,43312.85,2305231.07,8.5,344014.07,2186871.06,8.05
CAT-4031,59433.93,3207998.62,11.829999999999998,441567.26999999996,2677413.04,9.87
CAT-4105,51041.259999999995,2702925.3899999997,9.95,353314.48,3261598.0,12.02
CNA-0005,44567.520000000004,2407921.0300000003,8.87,342093.33999999997,2134241.8400000003,7.869999999999999
CVM-0007,19610.97,924824.76,3.41,249999.06,1254604.07,4.63
CVM-0056,126.52,6627.67,0.02,1920.74,-5599.44,-0.02
CVM-0106,13337.57,731500.48,2.7,143246.53,753351.7999999999,2.78
CVM-0108,14592.269999999999,801338.88,2.94,210674.52,809184.3500000001,2.98
CVM-3510,1918.92,101320.23999999999,0.38,18398.63,48012.68,0.18
CVM-3529,10554.07,562374.23,2.0700000000000003,141527.97,405472.36,1.49
CVM-4076,29500.809999999998,1624559.9100000001,5.9799999999999995,231398.24,1923444.8900000001,7.08
ENG-3355,37977.82,2026994.22,7.47,300443.67,2146523.4600000004,7.91
ONL-3999,600.98,44585.509999999995,0.17,4245.84,17572.760000000002,0.06
OSP-0008,14971.83,786114.02,2.8899999999999997,117164.95,709057.5900000001,2.6100000000000003
OSP-2373,104728.94,5606463.97,20.66,782447.53,5979349.600000001,22.03
OSP-4034,6610.799999999999,338758.24,1.25,55195.909999999996,520758.84,1.9100000000000001
OSP-4053,6315.57,388331.06000000006,1.43,49939.17,504881.27,1.8599999999999999
OSP-4054,5693.51,314220.47,1.1600000000000001,41750.759999999995,30655.119999999995,0.10999999999999999
OSP-4079,14539.529999999999,845437.72,3.12,90679.0,501452.65,1.85
OSP-4102,10364.31,651527.73,2.4000000000000004,79660.03,585098.1299999999,2.16
PBU-4073,5134.7,275956.77,1.02,28507.769999999997,285542.37,1.05
TBR-4103,6357.76,347283.61,1.27,52668.62,318983.44,1.18
TBR-4303,2804.58,138545.1,0.5,17589.91,92370.82,0.33999999999999997
Column_Total,504097.01999999996,27140840.7,99.99000000000001,4098448.01,27140840.700000003,100.0
