campaign,total_conversions,total_conversion_value,normalised_conversion_value,total_conversions_act_purchase,total_conversion_value_act_purchase,normalised_conversion_value_act_purchase
CAT-4003,45930.46,2457818.76,9.06,356254.98000000004,2690304.1000000006,9.91
CAT-4031,45429.42999999999,2452503.76,9.03,347048.26,2051751.75,7.5600000000000005
CAT-4105,54519.619999999995,3013844.67,11.1,371187.81999999995,2697300.4000000004,9.95
CNA-0005,32610.13,1853881.98,6.83,253409.22999999998,1860280.94,6.86
CVM-0007,22661.02,1205422.1199999999,4.4399999999999995,278334.73,1173853.5499999998,4.33
CVM-0056,42.95,1680.25,0.01,1796.44,7054.46,0.02
CVM-0106,14272.29,760241.6699999999,2.8099999999999996,147756.56,1077314.16,3.9699999999999998
CVM-0108,13162.87,701795.64,2.58,191769.14,738452.94,2.7199999999999998
CVM-3510,1925.4,98734.93,0.37,22006.29,-160897.07,-0.59
CVM-3529,12046.279999999999,655295.42,2.42,148430.21000000002,630678.6100000001,2.32
CVM-4076,31751.21,1689725.5699999998,6.23,245437.55,1770649.99,6.52
ENG-3355,41578.630000000005,2192158.84,8.07,331890.87,1992519.92,7.34
ONL-3999,400.82000000000005,19682.23,0.08,3929.69,-62642.73,-0.23
OSP-0008,14787.65,763471.74,2.81,116655.81999999999,759612.83,2.79
OSP-2373,110205.90000000001,5914204.3100000005,21.79,841740.81,6416674.569999999,23.639999999999997
OSP-4034,7859.07,466078.3599999999,1.7200000000000002,56587.619999999995,492830.0,1.8200000000000003
OSP-4053,7071.74,402028.83999999997,1.48,50412.39,348886.25,1.28
OSP-4054,6391.75,311622.32,1.16,44461.71000000001,510248.2,1.87
OSP-4079,14200.73,786390.41,2.9000000000000004,96109.12,603436.51,2.2199999999999998
OSP-4102,11359.15,578779.6000000001,2.13,86116.48000000001,604612.18,2.24
PBU-4073,5225.07,276641.24,1.02,33121.72,290092.97,1.07
TBR-4103,7751.700000000001,376708.08,1.39,52882.47,413699.3300000001,1.5299999999999998
TBR-4303,2913.16,162129.97,0.5900000000000001,21108.08,234126.84,0.8600000000000001
Column_Total,504097.02999999997,27140840.709999997,100.02,4098447.99,27140840.7,100.0
