,campaign_date,campaign,channel_name,total_conversions,total_conversion_value,normalised_conversion_value,total_conversions_act_purchase,total_conversion_value_act_purchase,normalised_conversion_value_act_purchase
52,CAT-4003_2021-01-28,CAT-4003,CAT-4003_2021-01-28_activated_purchase,9194.38,494482.88,1.8229,64513.21,459378.88,1.6935
44,CAT-4003_2021-01-28,CAT-4003,CAT-4003_2021-01-28_activation,14865.05,811503.8,2.9916,103707.26,667412.06,2.4604
50,CAT-4003_2021-01-28,CAT-4003,CAT-4003_2021-01-28_redemption,7866.16,423560.98,1.5615,46080.86,178529.57,0.6582
35,CAT-4003_2021-01-28,CAT-4003,CAT-4003_2021-01-28_unactivated_purchase,11802.28,582046.64,2.1457,120519.18,613190.97,2.2605
15,CAT-4031_2021-02-02,CAT-4031,CAT-4031_2021-02-02_activated_purchase,11717.37,624652.39,2.3028,73526.83,556019.53,2.0498
8,CAT-4031_2021-02-02,CAT-4031,CAT-4031_2021-02-02_activation,12384.51,674378.75,2.4861,79299.59,875014.38,3.2258
54,CAT-4031_2021-02-02,CAT-4031,CAT-4031_2021-02-02_redemption,952.19,65781.02,0.2425,6481.7,118780.27,0.4379
1,CAT-4031_2021-02-02,CAT-4031,CAT-4031_2021-02-02_unactivated_purchase,17509.34,934107.09,3.4436,177943.02,714979.82,2.6358
28,CAT-4105_2021-02-09,CAT-4105,CAT-4105_2021-02-09_activated_purchase,11972.1,607341.97,2.239,65829.8,760242.04,2.8026
25,CAT-4105_2021-02-09,CAT-4105,CAT-4105_2021-02-09_activation,13955.32,751937.07,2.772,81223.85,605124.22,2.2308
34,CAT-4105_2021-02-09,CAT-4105,CAT-4105_2021-02-09_redemption,10395.22,628571.54,2.3172,37877.46,563567.31,2.0776
17,CAT-4105_2021-02-09,CAT-4105,CAT-4105_2021-02-09_unactivated_purchase,16884.66,917431.67,3.3821,169131.95,846041.52,3.1189
37,CNA-0005_2021-02-08,CNA-0005,CNA-0005_2021-02-08_redemption,4469.83,289271.07,1.0664,13368.51,409443.53,1.5094
36,CNA-0005_2021-02-08,CNA-0005,CNA-0005_2021-02-08_unactivated_purchase,8181.54,424813.27,1.5661,62082.57,519091.35,1.9136
72,CVM-0007_2021-02-01,CVM-0007,CVM-0007_2021-02-01_activated_purchase,3165.87,155137.5,0.5719,19546.39,127016.22,0.4682
71,CVM-0007_2021-02-01,CVM-0007,CVM-0007_2021-02-01_activation,3481.25,196791.13,0.7255,23800.01,215435.08,0.7942
70,CVM-0007_2021-02-01,CVM-0007,CVM-0007_2021-02-01_redemption,2741.33,167341.63,0.6169,9925.11,216796.61,0.7992
29,CVM-0007_2021-02-01,CVM-0007,CVM-0007_2021-02-01_unactivated_purchase,11438.39,570069.42,2.1016,207819.62,688858.57,2.5395
93,CVM-0056_2021-02-01,CVM-0056,CVM-0056_2021-02-01_activated_purchase,24.26,694.38,0.0026,101.28,50.38,0.0002
78,CVM-0056_2021-02-01,CVM-0056,CVM-0056_2021-02-01_activation,18.19,417.49,0.0015,202.55,5074.44,0.0187
92,CVM-0056_2021-02-01,CVM-0056,CVM-0056_2021-02-01_redemption,12.13,651.69,0.0024,0.0,0.0,0.0
91,CVM-0056_2021-02-01,CVM-0056,CVM-0056_2021-02-01_unactivated_purchase,72.78,3103.33,0.0114,1417.87,2464.18,0.0091
80,CVM-0106_2021-02-01,CVM-0106,CVM-0106_2021-02-01_activated_purchase,2213.69,125330.0,0.462,13773.62,84781.4,0.3125
79,CVM-0106_2021-02-01,CVM-0106,CVM-0106_2021-02-01_activation,2122.71,116104.37,0.428,13874.9,149621.64,0.5516
81,CVM-0106_2021-02-01,CVM-0106,CVM-0106_2021-02-01_redemption,1043.16,80923.03,0.2983,3544.68,20975.21,0.0773
38,CVM-0106_2021-02-01,CVM-0106,CVM-0106_2021-02-01_unactivated_purchase,8114.83,448501.91,1.6534,110492.79,272800.14,1.0057
96,CVM-0108_2021-01-18,CVM-0108,CVM-0108_2021-01-18_activated_purchase,1255.43,74064.01,0.273,7494.47,56414.14,0.208
95,CVM-0108_2021-01-18,CVM-0108,CVM-0108_2021-01-18_activation,1273.63,82276.81,0.3033,8203.41,71959.27,0.2653
94,CVM-0108_2021-01-18,CVM-0108,CVM-0108_2021-01-18_redemption,436.67,30951.24,0.1141,1519.15,47785.7,0.1762
45,CVM-0108_2021-01-18,CVM-0108,CVM-0108_2021-01-18_unactivated_purchase,4742.75,234190.06,0.8633,79097.04,220413.94,0.8126
83,CVM-0108_2021-02-01,CVM-0108,CVM-0108_2021-02-01_activated_purchase,970.38,44264.11,0.1632,4962.55,-28963.41,-0.1068
82,CVM-0108_2021-02-01,CVM-0108,CVM-0108_2021-02-01_activation,655.01,32171.26,0.1186,5468.94,-32967.5,-0.1215
31,CVM-0108_2021-02-01,CVM-0108,CVM-0108_2021-02-01_unactivated_purchase,5591.83,287063.74,1.0583,101985.55,340549.56,1.2554
86,CVM-3510_2021-02-01,CVM-3510,CVM-3510_2021-02-01_activated_purchase,260.79,13583.81,0.0501,1721.7,21811.18,0.0804
84,CVM-3510_2021-02-01,CVM-3510,CVM-3510_2021-02-01_activation,145.56,7346.76,0.0271,1620.43,-29384.73,-0.1083
85,CVM-3510_2021-02-01,CVM-3510,CVM-3510_2021-02-01_redemption,224.4,10434.84,0.0385,1316.6,-26436.15,-0.0975
43,CVM-3510_2021-02-01,CVM-3510,CVM-3510_2021-02-01_unactivated_purchase,1170.52,65577.4,0.2418,14381.28,82107.86,0.3027
88,CVM-3529_2021-02-01,CVM-3529,CVM-3529_2021-02-01_activated_purchase,1479.83,75067.51,0.2767,6988.09,32699.22,0.1205
87,CVM-3529_2021-02-01,CVM-3529,CVM-3529_2021-02-01_activation,1049.23,65521.8,0.2415,7393.19,95184.55,0.3509
89,CVM-3529_2021-02-01,CVM-3529,CVM-3529_2021-02-01_redemption,630.75,48422.18,0.1785,2734.47,62972.35,0.2321
42,CVM-3529_2021-02-01,CVM-3529,CVM-3529_2021-02-01_unactivated_purchase,8715.25,478529.17,1.7641,126798.33,552882.79,2.0382
41,CVM-4076_2021-02-01,CVM-4076,CVM-4076_2021-02-01_activated_purchase,8745.57,432169.91,1.5932,50739.59,437236.57,1.6119
40,CVM-4076_2021-02-01,CVM-4076,CVM-4076_2021-02-01_activation,9449.1,507770.01,1.8719,60563.42,420345.69,1.5496
55,CVM-4076_2021-02-01,CVM-4076,CVM-4076_2021-02-01_redemption,1394.93,88124.73,0.3249,6988.09,208622.84,0.7691
30,CVM-4076_2021-02-01,CVM-4076,CVM-4076_2021-02-01_unactivated_purchase,10261.8,565344.42,2.0842,115354.07,572592.28,2.1109
21,ENG-3355_2021-02-11,ENG-3355,ENG-3355_2021-02-11_redemption,739.92,34568.39,0.1274,4962.55,46914.37,0.173
7,ENG-3355_2021-02-11,ENG-3355,ENG-3355_2021-02-11_unactivated_purchase,38020.81,2014314.91,7.4258,303019.64,2057452.78,7.5848
67,ONL-3999_B_2021-01-14,ONL-3999_B,ONL-3999_B_2021-01-14_redemption,18.19,970.31,0.0036,405.11,225.05,0.0008
51,ONL-3999_B_2021-01-14,ONL-3999_B,ONL-3999_B_2021-01-14_unactivated_purchase,327.5,24669.15,0.0909,3747.23,26897.37,0.0992
76,OSP-0008_2021-02-03,OSP-0008,OSP-0008_2021-02-03_activated_purchase,576.16,36639.08,0.1351,4456.17,1575.21,0.0058
59,OSP-0008_2021-02-03,OSP-0008,OSP-0008_2021-02-03_activation,1043.16,65993.51,0.2433,6684.26,93522.84,0.3448
77,OSP-0008_2021-02-03,OSP-0008,OSP-0008_2021-02-03_redemption,145.56,5698.77,0.021,1417.87,22711.93,0.0837
39,OSP-0008_2021-02-03,OSP-0008,OSP-0008_2021-02-03_unactivated_purchase,2638.23,135618.8,0.5,24610.22,92241.7,0.3401
47,OSP-0008_2021-02-10,OSP-0008,OSP-0008_2021-02-10_activated_purchase,1722.43,100488.51,0.3705,7494.47,8748.53,0.0323
46,OSP-0008_2021-02-10,OSP-0008,OSP-0008_2021-02-10_activation,2268.27,131853.83,0.4861,10026.39,101757.83,0.3751
49,OSP-0008_2021-02-10,OSP-0008,OSP-0008_2021-02-10_redemption,436.67,22495.2,0.0829,2126.81,77376.45,0.2852
13,OSP-0008_2021-02-10,OSP-0008,OSP-0008_2021-02-10_unactivated_purchase,7896.49,434737.16,1.6027,68057.89,386754.49,1.4258
2,OSP-2373_2021-02-03,OSP-2373,OSP-2373_2021-02-03_activated_purchase,8096.63,424388.47,1.5645,55499.59,699612.86,2.5791
0,OSP-2373_2021-02-03,OSP-2373,OSP-2373_2021-02-03_activation,16429.79,868736.36,3.2026,114138.75,952063.44,3.5098
4,OSP-2373_2021-02-03,OSP-2373,OSP-2373_2021-02-03_redemption,6119.48,339310.32,1.2509,38890.22,361839.14,1.3339
90,OSP-2373_2021-02-03,OSP-2373,OSP-2373_2021-02-03_unactivated_purchase,18746.58,954190.4,3.5176,210857.92,891001.63,3.2847
12,OSP-2373_2021-02-10,OSP-2373,OSP-2373_2021-02-10_activated_purchase,20062.66,1125071.84,4.1476,90743.85,1032575.33,3.8066
9,OSP-2373_2021-02-10,OSP-2373,OSP-2373_2021-02-10_activation,22713.02,1226098.47,4.52,111708.11,1095538.35,4.0387
11,OSP-2373_2021-02-10,OSP-2373,OSP-2373_2021-02-10_redemption,15520.06,920461.22,3.3933,60968.52,1119699.11,4.1278
5,OSP-2373_2021-02-10,OSP-2373,OSP-2373_2021-02-10_unactivated_purchase,35831.38,1846201.98,6.8061,400650.3,1696027.43,6.2524
69,OSP-4034_2021-01-27,OSP-4034,OSP-4034_2021-01-27_activated_purchase,1206.91,61129.51,0.2254,10228.94,116953.4,0.4312
58,OSP-4034_2021-01-27,OSP-4034,OSP-4034_2021-01-27_activation,2759.53,138179.08,0.5094,19647.66,220416.2,0.8126
73,OSP-4034_2021-01-27,OSP-4034,OSP-4034_2021-01-27_redemption,363.89,22971.73,0.0847,1822.98,10599.12,0.0391
14,OSP-4034_2021-01-27,OSP-4034,OSP-4034_2021-01-27_unactivated_purchase,2037.8,86754.74,0.3198,20964.26,90422.55,0.3333
53,OSP-4053_2021-02-03,OSP-4053,OSP-4053_2021-02-03_activated_purchase,1031.03,60972.96,0.2248,7291.92,87994.29,0.3244
48,OSP-4053_2021-02-03,OSP-4053,OSP-4053_2021-02-03_activation,1995.35,115140.43,0.4245,16609.37,166866.79,0.6152
74,OSP-4053_2021-02-03,OSP-4053,OSP-4053_2021-02-03_redemption,230.47,12168.23,0.0449,1620.43,17499.43,0.0645
32,OSP-4053_2021-02-03,OSP-4053,OSP-4053_2021-02-03_unactivated_purchase,3384.21,176808.78,0.6518,32104.69,358635.43,1.3221
75,OSP-4054_2021-02-03,OSP-4054,OSP-4054_2021-02-03_activated_purchase,1079.55,66292.75,0.2444,5772.77,40417.09,0.149
57,OSP-4054_2021-02-03,OSP-4054,OSP-4054_2021-02-03_activation,2104.52,104813.21,0.3864,15090.22,236667.17,0.8725
66,OSP-4054_2021-02-03,OSP-4054,OSP-4054_2021-02-03_redemption,103.1,3837.36,0.0141,810.21,15223.34,0.0561
3,OSP-4054_2021-02-03,OSP-4054,OSP-4054_2021-02-03_unactivated_purchase,2480.54,136917.17,0.5047,24508.94,178277.47,0.6572
19,OSP-4079_2021-02-10,OSP-4079,OSP-4079_2021-02-10_activated_purchase,3905.79,215336.78,0.7938,18229.79,65150.51,0.2402
18,OSP-4079_2021-02-10,OSP-4079,OSP-4079_2021-02-10_activation,3990.7,213117.23,0.7857,21166.81,138005.27,0.5088
20,OSP-4079_2021-02-10,OSP-4079,OSP-4079_2021-02-10_redemption,412.41,23721.8,0.0875,607.66,-18638.34,-0.0687
16,OSP-4079_2021-02-10,OSP-4079,OSP-4079_2021-02-10_unactivated_purchase,6465.17,329985.16,1.2165,54081.71,345235.1,1.2727
22,OSP-4102_2021-02-10,OSP-4102,OSP-4102_2021-02-10_activated_purchase,2353.18,128943.95,0.4754,15090.22,194838.68,0.7183
10,OSP-4102_2021-02-10,OSP-4102,OSP-4102_2021-02-10_activation,2456.28,120579.29,0.4445,16508.09,124433.89,0.4587
23,OSP-4102_2021-02-10,OSP-4102,OSP-4102_2021-02-10_redemption,260.79,15731.83,0.058,1519.15,51688.0,0.1905
6,OSP-4102_2021-02-10,OSP-4102,OSP-4102_2021-02-10_unactivated_purchase,5804.1,313469.88,1.1556,43548.95,240365.1,0.8861
27,PBU-4073_2021-02-08,PBU-4073,PBU-4073_2021-02-08_activated_purchase,1291.82,78545.76,0.2896,6481.7,164690.16,0.6071
26,PBU-4073_2021-02-08,PBU-4073,PBU-4073_2021-02-08_activation,1704.23,97212.74,0.3584,6582.98,58125.01,0.2143
33,PBU-4073_2021-02-08,PBU-4073,PBU-4073_2021-02-08_redemption,1018.9,58255.92,0.2148,4658.72,64455.64,0.2376
24,PBU-4073_2021-02-08,PBU-4073,PBU-4073_2021-02-08_unactivated_purchase,976.45,54681.63,0.2016,7190.64,28466.38,0.1049
62,TBR-4103_2021-02-01,TBR-4103,TBR-4103_2021-02-01_activated_purchase,1898.31,102254.5,0.377,10431.49,152353.56,0.5617
61,TBR-4103_2021-02-01,TBR-4103,TBR-4103_2021-02-01_activation,1946.83,101167.96,0.373,11849.36,219156.95,0.8079
63,TBR-4103_2021-02-01,TBR-4103,TBR-4103_2021-02-01_redemption,1540.48,77865.53,0.2871,10127.66,113382.65,0.418
56,TBR-4103_2021-02-01,TBR-4103,TBR-4103_2021-02-01_unactivated_purchase,1485.9,71241.09,0.2626,18229.79,103477.18,0.3815
65,TBR-4303_2021-02-09,TBR-4303,TBR-4303_2021-02-09_activated_purchase,921.86,44321.59,0.1634,4253.62,-35281.64,-0.1301
64,TBR-4303_2021-02-09,TBR-4303,TBR-4303_2021-02-09_activation,1024.97,65077.8,0.2399,3949.79,-16315.76,-0.0601
68,TBR-4303_2021-02-09,TBR-4303,TBR-4303_2021-02-09_redemption,345.7,20999.06,0.0774,1215.32,-1791.37,-0.0066
60,TBR-4303_2021-02-09,TBR-4303,TBR-4303_2021-02-09_unactivated_purchase,958.25,57035.77,0.2103,8912.34,53037.14,0.1955
