,campaign,campaign_date,total_conversions,total_conversion_value,normalised_conversion_value,total_conversions_act_purchase,total_conversion_value_act_purchase,normalised_conversion_value_act_purchase,description,cmpgn_type,cmpgn_id,pph,num_CRN,inc_sales
0,CAT-4003,CAT-4003_2021-01-28,42116.409999999996,2238486.29,8.2523,332981.28,2499844.01,9.2156,International Foods Multiplier,stretch,22531.0,promo,258989.0,-57773.01547567749
1,CAT-4031,CAT-4031_2021-02-02,41430.28,2211135.78,8.151399999999999,334409.07999999996,1889890.96,6.9671,WW BBQ Feb 2021 Multiplier,stretch,22831.0,promo,24482.0,192145.07113495536
2,CAT-4105,CAT-4105_2021-02-09,54022.840000000004,2960831.93,10.915099999999999,352562.42000000004,2722143.37,10.0353,February Meat program week 1 and 2,stretch,23125.0,promo,189316.0,6352155.770650951
3,CNA-0005,CNA-0005_2021-02-08,12572.369999999999,666172.13,2.4558999999999997,75774.91,607741.9199999999,2.2404,Campaign notifying members when they have hit $10WD,stretch,39.0,promo,16462.0,607285.0652793554
4,CVM-0007,CVM-0007_2021-02-01,20705.05,1018720.98,3.7554999999999996,265059.22000000003,1005472.24,3.7066999999999997,Campaign designed to increase customer spend at store,stretch,1.0,promo,89451.0,348232.712367707
5,CVM-0056,CVM-0056_2021-02-01,343.06,16115.42,0.0594,2141.69,9673.279999999999,0.0356,Low Active CDA,stretch,306.0,promo,403.0,26968.177996765862
6,CVM-0106,CVM-0106_2021-02-01,14267.51,753194.44,2.7766,137169.93,676389.31,2.4936,Spend $XX in Week 1 and Week 2 to get YYYY bonus points,stretch,1335.0,promo,64613.0,490022.07640389726
7,CVM-0108,CVM-0108_2021-01-18,7718.99,481343.85,1.7744999999999997,98313.62,547276.9,2.0176,"CDA Continuity 4 Weeks - Spend $XX in Week 1, Week 2, Week 3 and Week 4 to get YYYY bonus points",stretch,1337.0,promo,35478.0,602325.751955708
8,CVM-0108,CVM-0108_2021-02-01,6982.4,437597.07,1.6132,107798.22,530735.65,1.9566,"CDA Continuity 4 Weeks - Spend $XX in Week 1, Week 2, Week 3 and Week 4 to get YYYY bonus points",stretch,1337.0,promo,19843.0,294868.7316128227
9,CVM-3510,CVM-3510_2021-02-01,1695.1599999999999,95675.31,0.3527,21518.85,120091.57,0.4427,3 Week Multiplier- HV Retention,stretch,15601.0,promo,9532.0,-63044.11985473168
10,CVM-3529,CVM-3529_2021-02-01,11543.16,586149.1799999999,2.1608,140433.46,659720.4299999999,2.432,Spend Get & Unlock,stretch,15602.0,promo,25980.0,584087.6468688787
11,CVM-4076,CVM-4076_2021-02-01,31269.479999999996,1548945.83,5.7102,240276.84000000003,1657178.49,6.1091999999999995,Acquisition/RNS campaign Spend and Get,stretch,22102.0,promo,30846.0,1010380.5970377196
12,ENG-3355,ENG-3355_2021-02-11,38806.83,2064514.17,7.6109,309014.79,1822867.4000000001,6.7200999999999995,COVID CONTENT SERIES,stretch,11542.0,promo,22599.0,333101.42851305206
13,ONL-3999,ONL-3999_B_2021-01-,423.79,17399.63,0.0641,2345.66,26132.45,0.0963,,,,,,
14,OSP-0008,OSP-0008_2021-02-03,4439.67,211317.82,0.7791,39774.18,281625.63,1.0382,Campaign for personalised offers,stretch,299.0,promo,7571.0,11243.252851984364
15,OSP-0008,OSP-0008_2021-02-10,12047.68,617533.42,2.2766,91684.59,543923.6599999999,2.0052,Campaign for personalised offers,stretch,299.0,promo,8572.0,230751.86776758957
16,OSP-2373,OSP-2373_2021-02-03,48503.51,2677325.73,9.869900000000001,412529.64,2758706.09,10.17,Project Tiger,stretch,1700.0,promo,201404.0,1067740.2907564873
17,OSP-2373,OSP-2373_2021-02-10,92708.59,4975631.75,18.3428,666880.4199999999,5634407.24,20.7714,Project Tiger,stretch,1700.0,promo,266995.0,10629232.679542428
18,OSP-4034,OSP-4034_2021-01-27,6820.959999999999,370653.55000000005,1.3665,50584.61,374614.44,1.3811,Tip Top  Back to School 5x pts,stretch,22203.0,promo,8166.0,-8747.553608478282
19,OSP-4053,OSP-4053_2021-02-03,6417.35,365478.79000000004,1.3474,50278.64,371071.0,1.3679999999999999,CCA Powerade 3x pts,stretch,22830.0,promo,6105.0,8676.057199872934
20,OSP-4054,OSP-4054_2021-02-03,6084.370000000001,276989.59,1.0211,45077.399999999994,315990.9,1.1649,CCA Mini Cans 3x pts,stretch,22832.0,promo,2916.0,8531.708412839524
21,OSP-4079,OSP-4079_2021-02-10,15528.79,1037453.9400000001,3.8245999999999998,91174.67,832023.75,3.0671999999999997,Mr Chens 5x pts,stretch,23059.0,promo,5189.0,149889.98360916608
22,OSP-4102,OSP-4102_2021-02-10,12834.71,701332.52,2.5854999999999997,78324.54999999999,494037.36,1.8212000000000002,Pepsi Max 5x pts,stretch,23060.0,promo,6171.0,153645.036232712
23,PBU-4073,PBU-4073_2021-02-08,5287.26,272731.37000000005,1.0054,29983.620000000003,203212.8,0.7491,All opted in Bupa - linked members will  Earn 10x when they spend $5 on fruit/veg,stretch,22960.0,promo,25246.0,332549.24909179774
24,TBR-4103,TBR-4103_2021-02-01,5973.400000000001,318309.37,1.1734,54460.03,353329.99,1.3025,EDR+ February Boosters,stretch,22729.0,promo,52175.0,-236294.91550219667
25,TBR-4303,TBR-4303_2021-02-09,3400.4000000000005,204817.81,0.7551,22436.72,187756.84999999998,0.6922,EDR+ Project Barry - Team Member Giveaway,stretch,22927.0,promo,4174.0,63311.69726949926
Column_Total,,,503944.02,27125857.669999998,100.0,4052989.0399999996,27125857.69,99.9998,,,324287.0,,1382678.0,23131285.248115107
